[{
	"x":0,
	"y":450,
	"width":175,
	"height":110,
	"class":"link",
	"data":
		{
			"url": "https://www.screenflex.com/fabric-card-request/?location=digizine_page_12"
		}
},
{
	"x":177,
	"y":450,
	"width":150,
	"height":110,
	"class":"link",
	"data":
		{
			"url": "https://www.screenflex.com/build-your-room-divider/?location=digizine_page_12#BYORD"
		}
},
{
	"x":327,
	"y":450,
	"width":175,
	"height":110,
	"class":"link",
	"data":
		{
			"url": "mailto:information@screenflex.com?subject=Request%20Free%20Design%20Consultation"
		}
}]